singlecycle.vcd
$date
	Fri Dec 01 17:15:48 2023
$end
$version
	Icarus Verilog
$end
$timescale
	1ps
$end
$scope module SingleCycleProcTest_v $end
$var wire 64 ! currentPC [63:0] $end
$var wire 64 " MemtoRegOut [63:0] $end
$var reg 1 # CLK $end
$var reg 1 $ Reset_L $end
$var reg 8 % passed [7:0] $end
$var reg 64 & startPC [63:0] $end
$var reg 16 ' watchdog [15:0] $end
$scope module uut $end
$var wire 1 # CLK $end
$var wire 1 $ resetl $end
$var wire 64 ( startpc [63:0] $end
$var wire 1 ) zero $end
$var wire 1 * uncond_branch $end
$var wire 3 + signop [2:0] $end
$var wire 5 , rn [4:0] $end
$var wire 5 - rm [4:0] $end
$var wire 1 . regwrite $end
$var wire 64 / regoutB [63:0] $end
$var wire 64 0 regoutA [63:0] $end
$var wire 1 1 reg2loc $end
$var wire 5 2 rd [4:0] $end
$var wire 11 3 opcode [10:0] $end
$var wire 64 4 nextpc [63:0] $end
$var wire 1 5 memwrite $end
$var wire 1 6 memread $end
$var wire 1 7 mem2reg $end
$var wire 32 8 instruction [31:0] $end
$var wire 64 9 extimm [63:0] $end
$var wire 1 : branch $end
$var wire 1 ; alusrc $end
$var wire 64 < aluout [63:0] $end
$var wire 4 = aluctrl [3:0] $end
$var wire 64 > MemtoRegOut [63:0] $end
$var wire 64 ? MemtoRegIn [63:0] $end
$var wire 64 @ ALU_input [63:0] $end
$var reg 64 A currentpc [63:0] $end
$scope module ALU_1 $end
$var wire 64 B BusB [63:0] $end
$var wire 1 ) Zero $end
$var wire 64 C BusA [63:0] $end
$var wire 4 D ALUCtrl [3:0] $end
$var reg 64 E BusW [63:0] $end
$var reg 1 F inter_Zero $end
$upscope $end
$scope module DataMemory_1 $end
$var wire 64 G Address [63:0] $end
$var wire 1 # Clock $end
$var wire 64 H WriteData [63:0] $end
$var wire 1 5 MemoryWrite $end
$var wire 1 6 MemoryRead $end
$var reg 64 I ReadData [63:0] $end
$scope task initset $end
$var reg 64 J addr [63:0] $end
$var reg 64 K data [63:0] $end
$upscope $end
$upscope $end
$scope module NexNextPClogic_1 $end
$var wire 1 ) ALUZero $end
$var wire 64 L CurrentPC [63:0] $end
$var wire 1 * Uncondbranch $end
$var wire 64 M SignExtImm64 [63:0] $end
$var wire 1 : Branch $end
$var reg 64 N NextPC [63:0] $end
$upscope $end
$scope module RegisterFile_1 $end
$var wire 64 O BusA [63:0] $end
$var wire 64 P BusB [63:0] $end
$var wire 64 Q BusW [63:0] $end
$var wire 1 # Clk $end
$var wire 5 R RA [4:0] $end
$var wire 5 S RB [4:0] $end
$var wire 5 T RW [4:0] $end
$var wire 1 . RegWr $end
$scope begin $ivl_for_loop0 $end
$var integer 32 U i [31:0] $end
$upscope $end
$upscope $end
$scope module Sign_Extender_1 $end
$var wire 26 V Imm25 [25:0] $end
$var wire 3 W Ctrl [2:0] $end
$var reg 64 X BusImm [63:0] $end
$upscope $end
$scope module control $end
$var wire 11 Y opcode [10:0] $end
$var reg 4 Z aluop [3:0] $end
$var reg 1 ; alusrc $end
$var reg 1 : branch $end
$var reg 1 7 mem2reg $end
$var reg 1 6 memread $end
$var reg 1 5 memwrite $end
$var reg 1 1 reg2loc $end
$var reg 1 . regwrite $end
$var reg 3 [ signop [2:0] $end
$var reg 1 * uncond_branch $end
$upscope $end
$scope module imem $end
$var wire 64 \ Address [63:0] $end
$var parameter 32 ] MemSize $end
$var parameter 32 ^ T_rd $end
$var reg 32 _ Data [31:0] $end
$upscope $end
$upscope $end
$scope task allPassed $end
$var reg 8 ` numTests [7:0] $end
$var reg 8 a passed [7:0] $end
$upscope $end
$scope task passTest $end
$var reg 64 b actualOut [63:0] $end
$var reg 64 c expectedOut [63:0] $end
$var reg 8 d passed [7:0] $end
$var reg 257 e testType [256:0] $end
$upscope $end
$upscope $end
$enddefinitions $end
$comment Show the parameter values. $end
$dumpall
b10100 ^
b101000 ]
$end
#0
$dumpvars
bx e
bx d
bx c
bx b
bx a
bx `
bx _
bx \
bx [
bx Z
bx Y
bx X
bx W
bx V
b100000 U
bx T
bx S
bx R
bx Q
bx P
bx O
bx N
bx M
bx L
b0 K
b100000 J
bx I
bx H
bx G
xF
bx E
bx D
bx C
bx B
bx A
bx @
bx ?
bx >
bx =
bx <
x;
x:
bx 9
bx 8
x7
x6
x5
bx 4
bx 3
bx 2
x1
bx 0
bx /
x.
bx -
bx ,
bx +
x*
x)
b0 (
b0 '
b0 &
b0 %
1$
0#
bx "
bx !
$end
#60000
1#
#120000
b1 '
0#
#121000
0$
#180000
1#
#240000
b10 '
0#
#243000
0)
0F
b0 @
b0 B
b0 9
b0 M
b0 X
b0 +
b0 W
b0 [
b10 =
b10 D
b10 Z
0*
0:
05
16
1.
17
1;
b0x00x -
b0x00x S
b10000000000001111101001 V
b11111000010 3
b11111000010 Y
b11111 ,
b11111 R
b1001 2
b1001 T
b100 4
b100 N
b11111000010000000000001111101001 8
b11111000010000000000001111101001 _
b0 !
b0 A
b0 L
b0 \
#245000
1)
1F
b0 <
b0 E
b0 G
b0 0
b0 C
b0 O
#300000
b1 "
b1 >
b1 Q
b1 ?
b1 I
1$
1#
#360000
b11 '
0#
#363000
0)
0F
b1000 <
b1000 E
b1000 G
b1000 @
b1000 B
b1000 9
b1000 M
b1000 X
b0x0x0 -
b0x0x0 S
b10000001000001111101010 V
b1010 2
b1010 T
b1000 4
b1000 N
b11111000010000001000001111101010 8
b11111000010000001000001111101010 _
b100 !
b100 A
b100 L
b100 \
#420000
b1010 "
b1010 >
b1010 Q
b1010 ?
b1010 I
1#
#480000
b100 '
0#
#483000
b10000 <
b10000 E
b10000 G
b10000 @
b10000 B
b10000 9
b10000 M
b10000 X
b0x0x1 -
b0x0x1 S
b10000010000001111101011 V
b1011 2
b1011 T
b1100 4
b1100 N
b11111000010000010000001111101011 8
b11111000010000010000001111101011 _
b1000 !
b1000 A
b1000 L
b1000 \
#540000
b101 "
b101 >
b101 Q
b101 ?
b101 I
1#
#600000
b101 '
0#
#603000
b11000 <
b11000 E
b11000 G
b11000 @
b11000 B
b11000 9
b11000 M
b11000 X
b0xx0x -
b0xx0x S
b10000011000001111101100 V
b1100 2
b1100 T
b10000 4
b10000 N
b11111000010000011000001111101100 8
b11111000010000011000001111101100 _
b1100 !
b1100 A
b1100 L
b1100 \
#660000
b111111111011111010100111110111101010110110111110111011111111 "
b111111111011111010100111110111101010110110111110111011111111 >
b111111111011111010100111110111101010110110111110111011111111 Q
b111111111011111010100111110111101010110110111110111011111111 ?
b111111111011111010100111110111101010110110111110111011111111 I
1#
#720000
b110 '
0#
#723000
b100000 <
b100000 E
b100000 G
b100000 @
b100000 B
b100000 9
b100000 M
b100000 X
b0xxxx -
b0xxxx S
b10000100000001111101101 V
b1101 2
b1101 T
b10100 4
b10100 N
b11111000010000100000001111101101 8
b11111000010000100000001111101101 _
b10000 !
b10000 A
b10000 L
b10000 \
#780000
b0 "
b0 >
b0 Q
b0 ?
b0 I
1#
#840000
b111 '
0#
#843000
bx <
bx E
bx G
bx "
bx >
bx Q
bx @
bx B
b1011000000 9
b1011000000 M
b1011000000 X
b1 +
b1 W
b1 [
b1 =
b1 D
b1 Z
06
07
0;
01
b1011 -
b1011 S
b10000010110000000101001010 V
b10101010000 3
b10101010000 Y
b1010 ,
b1010 R
b1010 2
b1010 T
b11000 4
b11000 N
b10101010000010110000000101001010 8
b10101010000010110000000101001010 _
b10100 !
b10100 A
b10100 L
b10100 \
#845000
b1111 "
b1111 >
b1111 Q
b101 @
b101 B
b1111 <
b1111 E
b1111 G
b101 /
b101 H
b101 P
b1010 0
b1010 C
b1010 O
#900000
1#
#960000
b1000 '
0#
#963000
b0 "
b0 >
b0 Q
1)
1F
b0 <
b0 E
b0 G
bx +
bx W
bx [
b0 =
b0 D
b0 Z
b1010 -
b1010 S
b10000010100000000110001100 V
b10001010000 3
b10001010000 Y
b1100 ,
b1100 R
b1100 2
b1100 T
b11100 4
b11100 N
b10001010000010100000000110001100 8
b10001010000010100000000110001100 _
b11000 !
b11000 A
b11000 L
b11000 \
#965000
b1111 "
b1111 >
b1111 Q
b1111 @
b1111 B
0)
0F
b1111 <
b1111 E
b1111 G
b1111 /
b1111 H
b1111 P
b111111111011111010100111110111101010110110111110111011111111 0
b111111111011111010100111110111101010110110111110111011111111 C
b111111111011111010100111110111101010110110111110111011111111 O
#1020000
1#
#1080000
b1001 '
0#
#1083000
b0xxxx "
b0xxxx >
b0xxxx Q
b100 9
b100 M
b100 X
b11 +
b11 W
b11 [
b111 =
b111 D
b111 Z
1:
0.
x7
11
b1100 -
b1100 S
b10001100 V
b10110100000 3
b10110100000 Y
b100 ,
b100 R
b100000 4
b100000 N
b10110100000000000000000010001100 8
b10110100000000000000000010001100 _
b11100 !
b11100 A
b11100 L
b11100 \
#1085000
b100 0
b100 C
b100 O
#1140000
1#
#1200000
b1010 '
0#
#1203000
b10011 <
b10011 E
b10011 G
b10011 "
b10011 >
b10011 Q
bx +
bx W
bx [
b10 =
b10 D
b10 Z
0:
1.
07
01
b1001 -
b1001 S
b11000010010000000110101101 V
b10001011000 3
b10001011000 Y
b1101 ,
b1101 R
b1101 2
b1101 T
b100100 4
b100100 N
b10001011000010010000000110101101 8
b10001011000010010000000110101101 _
b100000 !
b100000 A
b100000 L
b100000 \
#1205000
b1 "
b1 >
b1 Q
b1 @
b1 B
b1 <
b1 E
b1 G
b1 /
b1 H
b1 P
b0 0
b0 C
b0 O
#1260000
1#
#1320000
b1011 '
0#
#1323000
b1111111111111111111111111111111111111111111111111111111111111111 "
b1111111111111111111111111111111111111111111111111111111111111111 >
b1111111111111111111111111111111111111111111111111111111111111111 Q
b1111111111111111111111111111111111111111111111111111111111111111 <
b1111111111111111111111111111111111111111111111111111111111111111 E
b1111111111111111111111111111111111111111111111111111111111111111 G
b110 =
b110 D
b110 Z
b11000010010000000110001100 V
b11001011000 3
b11001011000 Y
b1100 ,
b1100 R
b1100 2
b1100 T
b101000 4
b101000 N
b11001011000010010000000110001100 8
b11001011000010010000000110001100 _
b100100 !
b100100 A
b100100 L
b100100 \
#1325000
b1110 "
b1110 >
b1110 Q
b1110 <
b1110 E
b1110 G
b1111 0
b1111 C
b1111 O
#1380000
1#
#1440000
b1100 '
0#
#1443000
b0xxx0 "
b0xxx0 >
b0xxx0 Q
bx01 @
bx01 B
b1111111111111111111111111111111111111111111111111111111111111101 9
b1111111111111111111111111111111111111111111111111111111111111101 M
b1111111111111111111111111111111111111111111111111111111111111101 X
b10 +
b10 W
b10 [
bx =
bx D
bx Z
1*
x:
0.
x7
x;
x1
b111x1 -
b111x1 S
b11111111111111111111111101 V
b10111111 3
b10111111 Y
b11111 ,
b11111 R
b11101 2
b11101 T
b11100 4
b11100 N
b10111111111111111111111111101 8
b10111111111111111111111111101 _
b101000 !
b101000 A
b101000 L
b101000 \
#1445000
bx @
bx B
bx /
bx H
bx P
b0 0
b0 C
b0 O
#1500000
1#
#1560000
b1101 '
0#
#1563000
bx "
bx >
bx Q
bx <
bx E
bx G
b100 9
b100 M
b100 X
b11 +
b11 W
b11 [
b111 =
b111 D
b111 Z
0*
1:
0;
11
b1100 -
b1100 S
b10001100 V
b10110100000 3
b10110100000 Y
b100 ,
b100 R
b1100 2
b1100 T
b100000 4
b100000 N
b10110100000000000000000010001100 8
b10110100000000000000000010001100 _
b11100 !
b11100 A
b11100 L
b11100 \
#1565000
b0xxx0 "
b0xxx0 >
b0xxx0 Q
b1110 <
b1110 E
b1110 G
b1110 @
b1110 B
b1110 /
b1110 H
b1110 P
b100 0
b100 C
b100 O
#1620000
1#
#1680000
b1110 '
0#
#1683000
b10010 <
b10010 E
b10010 G
b10010 "
b10010 >
b10010 Q
bx +
bx W
bx [
b10 =
b10 D
b10 Z
0:
1.
07
01
b1001 -
b1001 S
b11000010010000000110101101 V
b10001011000 3
b10001011000 Y
b1101 ,
b1101 R
b1101 2
b1101 T
b100100 4
b100100 N
b10001011000010010000000110101101 8
b10001011000010010000000110101101 _
b100000 !
b100000 A
b100000 L
b100000 \
#1685000
b10 "
b10 >
b10 Q
b1 @
b1 B
b10 <
b10 E
b10 G
b1 /
b1 H
b1 P
b1 0
b1 C
b1 O
#1740000
1#
#1800000
b1111 '
0#
#1803000
b0 "
b0 >
b0 Q
1)
1F
b0 <
b0 E
b0 G
b110 =
b110 D
b110 Z
b11000010010000000110001100 V
b11001011000 3
b11001011000 Y
b1100 ,
b1100 R
b1100 2
b1100 T
b101000 4
b101000 N
b11001011000010010000000110001100 8
b11001011000010010000000110001100 _
b100100 !
b100100 A
b100100 L
b100100 \
#1805000
b1101 "
b1101 >
b1101 Q
0)
0F
b1101 <
b1101 E
b1101 G
b1110 0
b1110 C
b1110 O
#1860000
1#
#1920000
b10000 '
0#
#1923000
b0xx0x "
b0xx0x >
b0xx0x Q
bx01 @
bx01 B
b1111111111111111111111111111111111111111111111111111111111111101 9
b1111111111111111111111111111111111111111111111111111111111111101 M
b1111111111111111111111111111111111111111111111111111111111111101 X
b10 +
b10 W
b10 [
bx =
bx D
bx Z
1*
x:
0.
x7
x;
x1
b111x1 -
b111x1 S
b11111111111111111111111101 V
b10111111 3
b10111111 Y
b11111 ,
b11111 R
b11101 2
b11101 T
b11100 4
b11100 N
b10111111111111111111111111101 8
b10111111111111111111111111101 _
b101000 !
b101000 A
b101000 L
b101000 \
#1925000
bx @
bx B
bx /
bx H
bx P
b0 0
b0 C
b0 O
#1980000
1#
#2040000
b10001 '
0#
#2043000
bx "
bx >
bx Q
bx <
bx E
bx G
b100 9
b100 M
b100 X
b11 +
b11 W
b11 [
b111 =
b111 D
b111 Z
0*
1:
0;
11
b1100 -
b1100 S
b10001100 V
b10110100000 3
b10110100000 Y
b100 ,
b100 R
b1100 2
b1100 T
b100000 4
b100000 N
b10110100000000000000000010001100 8
b10110100000000000000000010001100 _
b11100 !
b11100 A
b11100 L
b11100 \
#2045000
b0xx0x "
b0xx0x >
b0xx0x Q
b1101 <
b1101 E
b1101 G
b1101 @
b1101 B
b1101 /
b1101 H
b1101 P
b100 0
b100 C
b100 O
#2100000
1#
#2160000
b10010 '
0#
#2163000
b10001 <
b10001 E
b10001 G
b10001 "
b10001 >
b10001 Q
bx +
bx W
bx [
b10 =
b10 D
b10 Z
0:
1.
07
01
b1001 -
b1001 S
b11000010010000000110101101 V
b10001011000 3
b10001011000 Y
b1101 ,
b1101 R
b1101 2
b1101 T
b100100 4
b100100 N
b10001011000010010000000110101101 8
b10001011000010010000000110101101 _
b100000 !
b100000 A
b100000 L
b100000 \
#2165000
b11 "
b11 >
b11 Q
b1 @
b1 B
b11 <
b11 E
b11 G
b1 /
b1 H
b1 P
b10 0
b10 C
b10 O
#2220000
1#
#2280000
b10011 '
0#
#2283000
b1 "
b1 >
b1 Q
b1 <
b1 E
b1 G
b110 =
b110 D
b110 Z
b11000010010000000110001100 V
b11001011000 3
b11001011000 Y
b1100 ,
b1100 R
b1100 2
b1100 T
b101000 4
b101000 N
b11001011000010010000000110001100 8
b11001011000010010000000110001100 _
b100100 !
b100100 A
b100100 L
b100100 \
#2285000
b1100 "
b1100 >
b1100 Q
b1100 <
b1100 E
b1100 G
b1101 0
b1101 C
b1101 O
#2340000
1#
#2400000
b10100 '
0#
#2403000
b0xx00 "
b0xx00 >
b0xx00 Q
bx01 @
bx01 B
b1111111111111111111111111111111111111111111111111111111111111101 9
b1111111111111111111111111111111111111111111111111111111111111101 M
b1111111111111111111111111111111111111111111111111111111111111101 X
b10 +
b10 W
b10 [
bx =
bx D
bx Z
1*
x:
0.
x7
x;
x1
b111x1 -
b111x1 S
b11111111111111111111111101 V
b10111111 3
b10111111 Y
b11111 ,
b11111 R
b11101 2
b11101 T
b11100 4
b11100 N
b10111111111111111111111111101 8
b10111111111111111111111111101 _
b101000 !
b101000 A
b101000 L
b101000 \
#2405000
bx @
bx B
bx /
bx H
bx P
b0 0
b0 C
b0 O
#2460000
1#
#2520000
b10101 '
0#
#2523000
bx "
bx >
bx Q
bx <
bx E
bx G
b100 9
b100 M
b100 X
b11 +
b11 W
b11 [
b111 =
b111 D
b111 Z
0*
1:
0;
11
b1100 -
b1100 S
b10001100 V
b10110100000 3
b10110100000 Y
b100 ,
b100 R
b1100 2
b1100 T
b100000 4
b100000 N
b10110100000000000000000010001100 8
b10110100000000000000000010001100 _
b11100 !
b11100 A
b11100 L
b11100 \
#2525000
b0xx00 "
b0xx00 >
b0xx00 Q
b1100 <
b1100 E
b1100 G
b1100 @
b1100 B
b1100 /
b1100 H
b1100 P
b100 0
b100 C
b100 O
#2580000
1#
#2640000
b10110 '
0#
#2643000
b10000 <
b10000 E
b10000 G
b10000 "
b10000 >
b10000 Q
bx +
bx W
bx [
b10 =
b10 D
b10 Z
0:
1.
07
01
b1001 -
b1001 S
b11000010010000000110101101 V
b10001011000 3
b10001011000 Y
b1101 ,
b1101 R
b1101 2
b1101 T
b100100 4
b100100 N
b10001011000010010000000110101101 8
b10001011000010010000000110101101 _
b100000 !
b100000 A
b100000 L
b100000 \
#2645000
b100 "
b100 >
b100 Q
b1 @
b1 B
b100 <
b100 E
b100 G
b1 /
b1 H
b1 P
b11 0
b11 C
b11 O
#2700000
1#
#2760000
b10111 '
0#
#2763000
b10 "
b10 >
b10 Q
b10 <
b10 E
b10 G
b110 =
b110 D
b110 Z
b11000010010000000110001100 V
b11001011000 3
b11001011000 Y
b1100 ,
b1100 R
b1100 2
b1100 T
b101000 4
b101000 N
b11001011000010010000000110001100 8
b11001011000010010000000110001100 _
b100100 !
b100100 A
b100100 L
b100100 \
#2765000
b1011 "
b1011 >
b1011 Q
b1011 <
b1011 E
b1011 G
b1100 0
b1100 C
b1100 O
#2820000
1#
#2880000
b11000 '
0#
#2883000
b0x0xx "
b0x0xx >
b0x0xx Q
bx01 @
bx01 B
b1111111111111111111111111111111111111111111111111111111111111101 9
b1111111111111111111111111111111111111111111111111111111111111101 M
b1111111111111111111111111111111111111111111111111111111111111101 X
b10 +
b10 W
b10 [
bx =
bx D
bx Z
1*
x:
0.
x7
x;
x1
b111x1 -
b111x1 S
b11111111111111111111111101 V
b10111111 3
b10111111 Y
b11111 ,
b11111 R
b11101 2
b11101 T
b11100 4
b11100 N
b10111111111111111111111111101 8
b10111111111111111111111111101 _
b101000 !
b101000 A
b101000 L
b101000 \
#2885000
bx @
bx B
bx /
bx H
bx P
b0 0
b0 C
b0 O
#2940000
1#
#3000000
b11001 '
0#
#3003000
bx "
bx >
bx Q
bx <
bx E
bx G
b100 9
b100 M
b100 X
b11 +
b11 W
b11 [
b111 =
b111 D
b111 Z
0*
1:
0;
11
b1100 -
b1100 S
b10001100 V
b10110100000 3
b10110100000 Y
b100 ,
b100 R
b1100 2
b1100 T
b100000 4
b100000 N
b10110100000000000000000010001100 8
b10110100000000000000000010001100 _
b11100 !
b11100 A
b11100 L
b11100 \
#3005000
b0x0xx "
b0x0xx >
b0x0xx Q
b1011 <
b1011 E
b1011 G
b1011 @
b1011 B
b1011 /
b1011 H
b1011 P
b100 0
b100 C
b100 O
#3060000
1#
#3120000
b11010 '
0#
#3123000
b1111 <
b1111 E
b1111 G
b1111 "
b1111 >
b1111 Q
bx +
bx W
bx [
b10 =
b10 D
b10 Z
0:
1.
07
01
b1001 -
b1001 S
b11000010010000000110101101 V
b10001011000 3
b10001011000 Y
b1101 ,
b1101 R
b1101 2
b1101 T
b100100 4
b100100 N
b10001011000010010000000110101101 8
b10001011000010010000000110101101 _
b100000 !
b100000 A
b100000 L
b100000 \
#3125000
b101 "
b101 >
b101 Q
b101 <
b101 E
b101 G
b1 @
b1 B
b1 /
b1 H
b1 P
#3180000
1#
#3240000
b11011 '
0#
#3243000
b11 "
b11 >
b11 Q
b11 <
b11 E
b11 G
b110 =
b110 D
b110 Z
b11000010010000000110001100 V
b11001011000 3
b11001011000 Y
b1100 ,
b1100 R
b1100 2
b1100 T
b101000 4
b101000 N
b11001011000010010000000110001100 8
b11001011000010010000000110001100 _
b100100 !
b100100 A
b100100 L
b100100 \
#3245000
b1010 "
b1010 >
b1010 Q
b1010 <
b1010 E
b1010 G
b1011 0
b1011 C
b1011 O
#3300000
1#
#3360000
b11100 '
0#
#3363000
b0x0x0 "
b0x0x0 >
b0x0x0 Q
bx01 @
bx01 B
b1111111111111111111111111111111111111111111111111111111111111101 9
b1111111111111111111111111111111111111111111111111111111111111101 M
b1111111111111111111111111111111111111111111111111111111111111101 X
b10 +
b10 W
b10 [
bx =
bx D
bx Z
1*
x:
0.
x7
x;
x1
b111x1 -
b111x1 S
b11111111111111111111111101 V
b10111111 3
b10111111 Y
b11111 ,
b11111 R
b11101 2
b11101 T
b11100 4
b11100 N
b10111111111111111111111111101 8
b10111111111111111111111111101 _
b101000 !
b101000 A
b101000 L
b101000 \
#3365000
bx @
bx B
bx /
bx H
bx P
b0 0
b0 C
b0 O
#3420000
1#
#3480000
b11101 '
0#
#3483000
bx "
bx >
bx Q
bx <
bx E
bx G
b100 9
b100 M
b100 X
b11 +
b11 W
b11 [
b111 =
b111 D
b111 Z
0*
1:
0;
11
b1100 -
b1100 S
b10001100 V
b10110100000 3
b10110100000 Y
b100 ,
b100 R
b1100 2
b1100 T
b100000 4
b100000 N
b10110100000000000000000010001100 8
b10110100000000000000000010001100 _
b11100 !
b11100 A
b11100 L
b11100 \
#3485000
b0x0x0 "
b0x0x0 >
b0x0x0 Q
b1010 <
b1010 E
b1010 G
b1010 @
b1010 B
b1010 /
b1010 H
b1010 P
b100 0
b100 C
b100 O
#3540000
1#
#3600000
b11110 '
0#
#3603000
b1110 <
b1110 E
b1110 G
b1110 "
b1110 >
b1110 Q
bx +
bx W
bx [
b10 =
b10 D
b10 Z
0:
1.
07
01
b1001 -
b1001 S
b11000010010000000110101101 V
b10001011000 3
b10001011000 Y
b1101 ,
b1101 R
b1101 2
b1101 T
b100100 4
b100100 N
b10001011000010010000000110101101 8
b10001011000010010000000110101101 _
b100000 !
b100000 A
b100000 L
b100000 \
#3605000
b110 "
b110 >
b110 Q
b1 @
b1 B
b110 <
b110 E
b110 G
b1 /
b1 H
b1 P
b101 0
b101 C
b101 O
#3660000
1#
#3720000
b11111 '
0#
#3723000
b100 "
b100 >
b100 Q
b100 <
b100 E
b100 G
b110 =
b110 D
b110 Z
b11000010010000000110001100 V
b11001011000 3
b11001011000 Y
b1100 ,
b1100 R
b1100 2
b1100 T
b101000 4
b101000 N
b11001011000010010000000110001100 8
b11001011000010010000000110001100 _
b100100 !
b100100 A
b100100 L
b100100 \
#3725000
b1001 "
b1001 >
b1001 Q
b1001 <
b1001 E
b1001 G
b1010 0
b1010 C
b1010 O
#3780000
1#
#3840000
b100000 '
0#
#3843000
b0x00x "
b0x00x >
b0x00x Q
bx01 @
bx01 B
b1111111111111111111111111111111111111111111111111111111111111101 9
b1111111111111111111111111111111111111111111111111111111111111101 M
b1111111111111111111111111111111111111111111111111111111111111101 X
b10 +
b10 W
b10 [
bx =
bx D
bx Z
1*
x:
0.
x7
x;
x1
b111x1 -
b111x1 S
b11111111111111111111111101 V
b10111111 3
b10111111 Y
b11111 ,
b11111 R
b11101 2
b11101 T
b11100 4
b11100 N
b10111111111111111111111111101 8
b10111111111111111111111111101 _
b101000 !
b101000 A
b101000 L
b101000 \
#3845000
bx @
bx B
bx /
bx H
bx P
b0 0
b0 C
b0 O
#3900000
1#
#3960000
b100001 '
0#
#3963000
bx "
bx >
bx Q
bx <
bx E
bx G
b100 9
b100 M
b100 X
b11 +
b11 W
b11 [
b111 =
b111 D
b111 Z
0*
1:
0;
11
b1100 -
b1100 S
b10001100 V
b10110100000 3
b10110100000 Y
b100 ,
b100 R
b1100 2
b1100 T
b100000 4
b100000 N
b10110100000000000000000010001100 8
b10110100000000000000000010001100 _
b11100 !
b11100 A
b11100 L
b11100 \
#3965000
b0x00x "
b0x00x >
b0x00x Q
b1001 <
b1001 E
b1001 G
b1001 @
b1001 B
b1001 /
b1001 H
b1001 P
b100 0
b100 C
b100 O
#4020000
1#
#4080000
b100010 '
0#
#4083000
b1101 <
b1101 E
b1101 G
b1101 "
b1101 >
b1101 Q
bx +
bx W
bx [
b10 =
b10 D
b10 Z
0:
1.
07
01
b1001 -
b1001 S
b11000010010000000110101101 V
b10001011000 3
b10001011000 Y
b1101 ,
b1101 R
b1101 2
b1101 T
b100100 4
b100100 N
b10001011000010010000000110101101 8
b10001011000010010000000110101101 _
b100000 !
b100000 A
b100000 L
b100000 \
#4085000
b111 "
b111 >
b111 Q
b1 @
b1 B
b111 <
b111 E
b111 G
b1 /
b1 H
b1 P
b110 0
b110 C
b110 O
#4140000
1#
#4200000
b100011 '
0#
#4203000
b101 "
b101 >
b101 Q
b101 <
b101 E
b101 G
b110 =
b110 D
b110 Z
b11000010010000000110001100 V
b11001011000 3
b11001011000 Y
b1100 ,
b1100 R
b1100 2
b1100 T
b101000 4
b101000 N
b11001011000010010000000110001100 8
b11001011000010010000000110001100 _
b100100 !
b100100 A
b100100 L
b100100 \
#4205000
b1000 "
b1000 >
b1000 Q
b1000 <
b1000 E
b1000 G
b1001 0
b1001 C
b1001 O
#4260000
1#
#4320000
b100100 '
0#
#4323000
b0x000 "
b0x000 >
b0x000 Q
bx01 @
bx01 B
b1111111111111111111111111111111111111111111111111111111111111101 9
b1111111111111111111111111111111111111111111111111111111111111101 M
b1111111111111111111111111111111111111111111111111111111111111101 X
b10 +
b10 W
b10 [
bx =
bx D
bx Z
1*
x:
0.
x7
x;
x1
b111x1 -
b111x1 S
b11111111111111111111111101 V
b10111111 3
b10111111 Y
b11111 ,
b11111 R
b11101 2
b11101 T
b11100 4
b11100 N
b10111111111111111111111111101 8
b10111111111111111111111111101 _
b101000 !
b101000 A
b101000 L
b101000 \
#4325000
bx @
bx B
bx /
bx H
bx P
b0 0
b0 C
b0 O
#4380000
1#
#4440000
b100101 '
0#
#4443000
bx "
bx >
bx Q
bx <
bx E
bx G
b100 9
b100 M
b100 X
b11 +
b11 W
b11 [
b111 =
b111 D
b111 Z
0*
1:
0;
11
b1100 -
b1100 S
b10001100 V
b10110100000 3
b10110100000 Y
b100 ,
b100 R
b1100 2
b1100 T
b100000 4
b100000 N
b10110100000000000000000010001100 8
b10110100000000000000000010001100 _
b11100 !
b11100 A
b11100 L
b11100 \
#4445000
b0x000 "
b0x000 >
b0x000 Q
b1000 <
b1000 E
b1000 G
b1000 @
b1000 B
b1000 /
b1000 H
b1000 P
b100 0
b100 C
b100 O
#4500000
1#
#4560000
b100110 '
0#
#4563000
b1100 <
b1100 E
b1100 G
b1100 "
b1100 >
b1100 Q
bx +
bx W
bx [
b10 =
b10 D
b10 Z
0:
1.
07
01
b1001 -
b1001 S
b11000010010000000110101101 V
b10001011000 3
b10001011000 Y
b1101 ,
b1101 R
b1101 2
b1101 T
b100100 4
b100100 N
b10001011000010010000000110101101 8
b10001011000010010000000110101101 _
b100000 !
b100000 A
b100000 L
b100000 \
#4565000
b1000 "
b1000 >
b1000 Q
b1 @
b1 B
b1000 <
b1000 E
b1000 G
b1 /
b1 H
b1 P
b111 0
b111 C
b111 O
#4620000
1#
#4680000
b100111 '
0#
#4683000
b110 "
b110 >
b110 Q
b110 <
b110 E
b110 G
b110 =
b110 D
b110 Z
b11000010010000000110001100 V
b11001011000 3
b11001011000 Y
b1100 ,
b1100 R
b1100 2
b1100 T
b101000 4
b101000 N
b11001011000010010000000110001100 8
b11001011000010010000000110001100 _
b100100 !
b100100 A
b100100 L
b100100 \
#4685000
b111 "
b111 >
b111 Q
b111 <
b111 E
b111 G
b1000 0
b1000 C
b1000 O
#4740000
1#
#4800000
b101000 '
0#
#4803000
b0xxx "
b0xxx >
b0xxx Q
bx01 @
bx01 B
b1111111111111111111111111111111111111111111111111111111111111101 9
b1111111111111111111111111111111111111111111111111111111111111101 M
b1111111111111111111111111111111111111111111111111111111111111101 X
b10 +
b10 W
b10 [
bx =
bx D
bx Z
1*
x:
0.
x7
x;
x1
b111x1 -
b111x1 S
b11111111111111111111111101 V
b10111111 3
b10111111 Y
b11111 ,
b11111 R
b11101 2
b11101 T
b11100 4
b11100 N
b10111111111111111111111111101 8
b10111111111111111111111111101 _
b101000 !
b101000 A
b101000 L
b101000 \
#4805000
bx @
bx B
bx /
bx H
bx P
b0 0
b0 C
b0 O
#4860000
1#
#4920000
b101001 '
0#
#4923000
bx "
bx >
bx Q
bx <
bx E
bx G
b100 9
b100 M
b100 X
b11 +
b11 W
b11 [
b111 =
b111 D
b111 Z
0*
1:
0;
11
b1100 -
b1100 S
b10001100 V
b10110100000 3
b10110100000 Y
b100 ,
b100 R
b1100 2
b1100 T
b100000 4
b100000 N
b10110100000000000000000010001100 8
b10110100000000000000000010001100 _
b11100 !
b11100 A
b11100 L
b11100 \
#4925000
b0xxx "
b0xxx >
b0xxx Q
b111 <
b111 E
b111 G
b111 @
b111 B
b111 /
b111 H
b111 P
b100 0
b100 C
b100 O
#4980000
1#
#5040000
b101010 '
0#
#5043000
b1011 <
b1011 E
b1011 G
b1011 "
b1011 >
b1011 Q
bx +
bx W
bx [
b10 =
b10 D
b10 Z
0:
1.
07
01
b1001 -
b1001 S
b11000010010000000110101101 V
b10001011000 3
b10001011000 Y
b1101 ,
b1101 R
b1101 2
b1101 T
b100100 4
b100100 N
b10001011000010010000000110101101 8
b10001011000010010000000110101101 _
b100000 !
b100000 A
b100000 L
b100000 \
#5045000
b1001 "
b1001 >
b1001 Q
b1 @
b1 B
b1001 <
b1001 E
b1001 G
b1 /
b1 H
b1 P
b1000 0
b1000 C
b1000 O
#5100000
1#
#5160000
b101011 '
0#
